{
    "students": [
        {
            "id": "alban",
            "preferences": {
                "n7": 1,
                "insa": 2,
                "isae": 3,
                "IutBlagnac": 4
            }
        },
        {
            "id": "stephan",
            "preferences": {
                "n7": 2,
                "insa": 1,
                "isae": 3,
                "IutBlagnac": 4
            }
        },
        {
            "id": "mélissa",
            "preferences": {
                "n7": 4,
                "insa": 3,
                "isae": 2,
                "IutBlagnac": 1
            }
        },
        {
            "id": "océane",
            "preferences": {
                "n7": 3,
                "insa": 2,
                "isae": 1,
                "IutBlagnac": 4
            }
        },
        {
            "id": "justinien",
            "preferences": {
                "n7": 4,
                "insa": 2,
                "isae": 3,
                "IutBlagnac": 1
            }
        },
        {
            "id": "rahim",
            "preferences": {
                "n7": 4,
                "insa": 3,
                "isae": 2,
                "IutBlagnac": 1
            }
        },
        {
            "id": "maev",
            "preferences": {
                "n7": 3,
                "insa": 2,
                "isae": 1,
                "IutBlagnac": 4
            }
        },
        {
            "id": "otis",
            "preferences": {
                "n7": 2,
                "insa": 4,
                "isae": 3,
                "IutBlagnac": 1
            }
        },
        {
            "id": "olla",
            "preferences": {
                "n7": 1,
                "insa": 3,
                "isae": 2,
                "IutBlagnac": 4
            }
        },
        {
            "id": "lilly",
            "preferences": {
                "n7": 1,
                "insa": 3,
                "isae": 4,
                "IutBlagnac": 2
            }
        }
    ],
    "schools": [
        {
            "id": "n7",
            "capacity": 2,
            "preferences": {
                "alban": 1,
                "stephan": 2,
                "mélissa": 3,
                "océane": 4,
                "justinien": 5,
                "rahim": 6,
                "maev": 7,
                "otis": 8,
                "olla": 9,
                "lilly": 10
            }
        },
        {
            "id": "insa",
            "capacity": 3,
            "preferences": {
                "alban": 2,
                "stephan": 9,
                "mélissa": 7,
                "océane": 5,
                "justinien": 8,
                "rahim": 6,
                "maev": 4,
                "otis": 10,
                "olla": 3,
                "lilly": 1
            }
        },
        {
            "id": "isae",
            "capacity": 1,
            "preferences": {
                "alban": 7,
                "stephan": 2,
                "mélissa": 3,
                "océane": 1,
                "justinien": 9,
                "rahim": 5,
                "maev": 6,
                "otis": 10,
                "olla": 8,
                "lilly": 4
            }
        },
        {
            "id": "IutBlagnac",
            "capacity": 4,
            "preferences": {
                "alban": 5,
                "stephan": 10,
                "mélissa": 6,
                "océane": 4,
                "justinien": 7,
                "rahim": 8,
                "maev": 3,
                "otis": 2,
                "olla": 1,
                "lilly": 9
            }
        }
    ]
}